2022-07-27 23:07:18,627 INFO    MainThread:320521 [wandb_setup.py:_flush():76] Loading settings from /u/hw56/.config/wandb/settings
2022-07-27 23:07:18,627 INFO    MainThread:320521 [wandb_setup.py:_flush():76] Loading settings from /nfs/nfs8/home/scratch/hw56/scientific_abstract_simplification/wandb/settings
2022-07-27 23:07:18,627 INFO    MainThread:320521 [wandb_setup.py:_flush():76] Loading settings from environment variables: {'_require_service': 'True'}
2022-07-27 23:07:18,627 INFO    MainThread:320521 [wandb_setup.py:_flush():76] Inferring run settings from compute environment: {'program_relpath': 'train.py', 'program': 'train.py'}
2022-07-27 23:07:18,628 INFO    MainThread:320521 [wandb_init.py:_log_setup():428] Logging user logs to wandb/wandb/run-20220727_230718-1hagd8d9/logs/debug.log
2022-07-27 23:07:18,628 INFO    MainThread:320521 [wandb_init.py:_log_setup():429] Logging internal logs to wandb/wandb/run-20220727_230718-1hagd8d9/logs/debug-internal.log
2022-07-27 23:07:18,628 INFO    MainThread:320521 [wandb_init.py:init():462] calling init triggers
2022-07-27 23:07:18,628 INFO    MainThread:320521 [wandb_init.py:init():465] wandb.init called with sweep_config: {}
config: {}
2022-07-27 23:07:18,628 INFO    MainThread:320521 [wandb_init.py:init():515] starting backend
2022-07-27 23:07:18,628 INFO    MainThread:320521 [wandb_init.py:init():519] setting up manager
2022-07-27 23:07:18,633 INFO    MainThread:320521 [backend.py:_multiprocessing_setup():97] multiprocessing start_methods=fork,spawn,forkserver, using: spawn
2022-07-27 23:07:18,638 INFO    MainThread:320521 [wandb_init.py:init():525] backend started and connected
2022-07-27 23:07:18,642 INFO    MainThread:320521 [wandb_init.py:init():596] updated telemetry
2022-07-27 23:07:18,765 INFO    MainThread:320521 [wandb_init.py:init():627] communicating run to backend with 30 second timeout
2022-07-27 23:07:18,987 INFO    MainThread:320521 [wandb_run.py:_on_init():1924] communicating current version
2022-07-27 23:07:19,076 INFO    MainThread:320521 [wandb_run.py:_on_init():1928] got version response upgrade_message: "wandb version 0.12.21 is available!  To upgrade, please run:\n $ pip install wandb --upgrade"

2022-07-27 23:07:19,076 INFO    MainThread:320521 [wandb_init.py:init():662] starting run threads in backend
2022-07-27 23:07:23,233 INFO    MainThread:320521 [wandb_run.py:_console_start():1898] atexit reg
2022-07-27 23:07:23,235 INFO    MainThread:320521 [wandb_run.py:_redirect():1771] redirect: SettingsConsole.WRAP
2022-07-27 23:07:23,236 INFO    MainThread:320521 [wandb_run.py:_redirect():1808] Wrapping output streams.
2022-07-27 23:07:23,238 INFO    MainThread:320521 [wandb_run.py:_redirect():1832] Redirects installed.
2022-07-27 23:07:23,238 INFO    MainThread:320521 [wandb_init.py:init():688] run started, returning control to user process
2022-07-27 23:07:57,816 INFO    MainThread:320521 [wandb_run.py:_config_callback():1136] config_cb None None {'model_or_ckpt_name': 'google/t5-efficient-tiny-nl32', 'tokenizer': 'google/t5-efficient-tiny-nl32'}
